1주차 패키지 문제
…
[문제 6]

confirmed_date 별 확진자 수에 대한 파생 변수 생성

data <- data %>% group_by(confirmed_date) %>% mutate(confirmed_number = n())

[문제 7]

confirmed_date의 주말 여부에 대한 파생 변수 생성

data$wday <- weekdays(data$confirmed_date) %>%
  revalue(c("월요일"= "주중", "화요일"= "주중", "수요일" = "주중", "목요일"= "주중", "금요일" = "주중", "토요일"="주말", "일요일"="주말"))

## # A tibble: 3,653 x 10
## # Groups:   confirmed_date [142]
##    patient_id sex   age   country province city  confirmed_date state
##    <int64>    <chr> <chr> <chr>   <chr>    <chr> <date>         <chr>
##  1 4.940656e~ male  50s   Korea   서울특별시~ 강서구~ 2020-01-23     rele~
##  2 4.940656e~ male  30s   Korea   서울특별시~ 중랑구~ 2020-01-30     rele~
##  3 4.940656e~ male  50s   Korea   서울특별시~ 종로구~ 2020-01-30     rele~
##  4 4.940656e~ male  20s   Korea   서울특별시~ 마포구~ 2020-01-30     rele~
##  5 4.940656e~ fema~ 20s   Korea   서울특별시~ 성북구~ 2020-01-31     rele~
##  6 4.940656e~ fema~ 50s   Korea   서울특별시~ 종로구~ 2020-01-31     rele~
##  7 4.940656e~ male  20s   Korea   서울특별시~ 종로구~ 2020-01-31     rele~
##  8 4.940656e~ male  20s   Korea   서울특별시~ 기타  2020-02-02     rele~
##  9 4.940657e~ male  30s   Korea   서울특별시~ 송파구~ 2020-02-05     rele~
## 10 4.940657e~ fema~ 60s   Korea   서울특별시~ 성북구~ 2020-02-05     rele~
## # ... with 3,643 more rows, and 2 more variables: confirmed_number <int>,
## #   wday <chr>
…
[문제 2] Bar Plot

지역별 확진자 수를 state 그룹 별로 나누어 Bar Plot 그리기

data를 해당 문제에서 필요한 변수들인 province, state를 기준으로 그룹화 후 province, state별 확진자 수를 count 변수로 추가

세 변수가 포함된 데이터를 province_data로 저장

province_data <- data %>% group_by(province, state) %>% summarise(count=n())
province_data

## # A tibble: 37 x 3
## # Groups:   province [16]
##    province state    count
##    <chr>    <chr>    <int>
##  1 강원도   deceased     3
##  2 강원도   isolated    13
##  3 강원도   released    43
##  4 경기도   isolated   768
##  5 경기도   released    57
##  6 경상남도 isolated     6
##  7 경상남도 released   123
##  8 경상북도 deceased    42
##  9 경상북도 isolated   130
## 10 경상북도 released  1068
## # ... with 27 more rows
…
